Travel on Tap: How R Can Help Recommend Us a Beer While On The Road
…
Show code

ibu_missing_by_style <- df |>
  mutate(ibu_missing = is.na(ibu)) |>
  group_by(style) |>
  summarise(
    n_beers       = n(),
    n_missing_ibu = sum(ibu_missing),
    pct_missing   = mean(ibu_missing)
  ) |>
  arrange(desc(pct_missing))

ibu_missing_by_style |> print(n = 20)

# A tibble: 100 × 4
   style                            n_beers n_missing_ibu pct_missing
   <chr>                              <int>         <int>       <dbl>
 1 American Malt Liquor                   1             1       1    
 2 Braggot                                1             1       1    
 3 Cider                                 37            37       1    
 4 Flanders Red Ale                       1             1       1    
 5 Kristalweizen                          1             1       1    
 6 Low Alcohol Beer                       1             1       1    
 7 Mead                                   5             5       1    
 8 Rauchbier                              2             2       1    
 9 Shandy                                 3             3       1    
10 Belgian IPA                           18            15       0.833
11 Belgian Strong Dark Ale                6             5       0.833
12 Light Lager                           12             9       0.75 
13 Quadrupel (Quad)                       4             3       0.75 
14 Belgian Dark Ale                      11             8       0.727
15 Belgian Strong Pale Ale                7             5       0.714
16 Bière de Garde                         7             5       0.714
17 Doppelbock                             7             5       0.714
18 American Double / Imperial Stout       9             6       0.667
19 American Wild Ale                      6             4       0.667
20 Belgian Pale Ale                      24            16       0.667
# ℹ 80 more rows
…
Check 3: Is missingness associated with geography?

Show code

df |>
  mutate(ibu_missing = is.na(ibu)) |>
  group_by(state) |>
  summarise(
    n_beers     = n(),
    pct_missing = mean(ibu_missing)
  ) |>
  arrange(desc(pct_missing)) |>
  print(n = 15)

# A tibble: 51 × 3
   state n_beers pct_missing
   <chr>   <int>       <dbl>
 1 SD          7       1    
 2 AR          5       0.8  
 3 CT         27       0.778
 4 MI        162       0.765
 5 NH          8       0.75 
 6 ME         27       0.741
 7 SC         14       0.643
 8 NE         25       0.64 
 9 UT         26       0.577
10 IL         91       0.571
11 NM         14       0.571
12 GA         16       0.562
13 PA        100       0.53 
14 MD         21       0.524
15 WI         87       0.517
# ℹ 36 more rows
…
A quick sanity check — do the imputed IBU values make domain sense?

Show code

df_imputed |>
  group_by(style_group, ibu_imputed) |>
  summarise(
    n          = n(),
    mean_ibu   = round(mean(ibu), 1),
    median_ibu = round(median(ibu), 1),
    .groups    = "drop"
  ) |>
  arrange(style_group, ibu_imputed)

# A tibble: 22 × 5
   style_group      ibu_imputed     n mean_ibu median_ibu
   <chr>            <lgl>       <int>    <dbl>      <dbl>
 1 Amber / Red      FALSE          85     35.5         30
 2 Amber / Red      TRUE           61     30           30
 3 Belgian / Saison FALSE          27     30.1         30
 4 Belgian / Saison TRUE           42     30           30
 5 Blonde / Golden  FALSE          61     21           20
 6 Blonde / Golden  TRUE           47     20           20
 7 IPA              FALSE         395     71.9         70
 8 IPA              TRUE          179     70           70
 9 Lager / Pilsner  FALSE         160     24.6         22
10 Lager / Pilsner  TRUE          128     22           22
# ℹ 12 more rows
…
