California forest fires acres battled by agency
…
Data Processing

To begin the process of extracting the data from the pdf, let’s instantiate some objects.

Code

pdf = "pdfs/fires-acres-all-agencies-thru-2018.pdf"
tib = pdf_data(pdf)[[1]] 

tib

# A tibble: 355 × 6
   width height     x     y space text         
   <int>  <int> <int> <int> <lgl> <chr>        
 1    88     22   153    18 TRUE  California   
 2    80     22   246    18 TRUE  Wildfires    
 3    32     22   331    18 TRUE  and          
 4    48     22   368    18 TRUE  Acres        
 5    25     22   422    18 TRUE  for          
 6    21     22   453    18 TRUE  all          
 7   110     22   479    18 FALSE Jurisdictions
 8    18      9   145    43 TRUE  CAL          
 9    21      9   167    43 FALSE FIRE         
10    26      9   116    57 FALSE FIRES        
# ℹ 345 more rows
…
