Reproducing Pew Research’s ‘How the audiences of 30 major news sources differ in their levels of education’
…
# Display the tibble
print(news_education)

# A tibble: 30 × 4
   news_source             college_plus some_college high_school_or_less
   <chr>                          <dbl>        <dbl>               <dbl>
 1 The Atlantic                      62           23                  14
 2 Axios                             59           21                  19
 3 NPR                               58           27                  14
 4 The New York Times                56           24                  19
 5 The Guardian                      53           28                  18
 6 The Wall Street Journal           53           26                  21
 7 Politico                          52           27                  20
 8 The Associated Press              52           28                  20
 9 BBC News                          49           27                  23
10 The Washington Post               47           30                  22
# ℹ 20 more rows
…
Code

# Optional: Sort by college+ percentage (descending)
news_education_sorted <- news_education %>%
  arrange(desc(college_plus))

print("Sorted by College+ percentage:")

[1] "Sorted by College+ percentage:"

Code

print(news_education_sorted)

# A tibble: 30 × 4
   news_source             college_plus some_college high_school_or_less
   <chr>                          <dbl>        <dbl>               <dbl>
 1 The Atlantic                      62           23                  14
 2 Axios                             59           21                  19
 3 NPR                               58           27                  14
 4 The New York Times                56           24                  19
 5 The Guardian                      53           28                  18
 6 The Wall Street Journal           53           26                  21
 7 Politico                          52           27                  20
 8 The Associated Press              52           28                  20
 9 BBC News                          49           27                  23
10 The Washington Post               47           30                  22
# ℹ 20 more rows
…
# Display the result
print(news_education)

# A tibble: 30 × 4
   news_source             college_plus some_college high_school_or_less
   <chr>                          <dbl>        <dbl>               <dbl>
 1 The Atlantic                      62           23                  14
 2 Axios                             59           21                  19
 3 NPR                               58           27                  14
 4 The New York Times                56           24                  19
 5 The Guardian                      53           28                  18
 6 The Wall Street Journal           53           26                  21
 7 Politico                          52           27                  20
 8 The Associated Press              52           28                  20
 9 BBC News                          49           27                  23
10 The Washington Post               47           30                  22
# ℹ 20 more rows
…
Code

# Check that percentages add up to ~100% for each source
news_education %>%
  mutate(total = college_plus + some_college + high_school_or_less) %>%
  select(news_source, total) %>%
  print()

# A tibble: 30 × 2
   news_source             total
   <chr>                   <dbl>
 1 The Atlantic               99
 2 Axios                      99
 3 NPR                        99
 4 The New York Times         99
 5 The Guardian               99
 6 The Wall Street Journal   100
 7 Politico                   99
 8 The Associated Press      100
 9 BBC News                   99
10 The Washington Post        99
# ℹ 20 more rows
Code

# Sort by college+ percentage (descending)
news_education_sorted <- news_education %>%
  arrange(desc(college_plus))

print("Sorted by College+ percentage:")

[1] "Sorted by College+ percentage:"

Code

print(news_education_sorted)

# A tibble: 30 × 4
   news_source             college_plus some_college high_school_or_less
   <chr>                          <dbl>        <dbl>               <dbl>
 1 The Atlantic                      62           23                  14
 2 Axios                             59           21                  19
 3 NPR                               58           27                  14
 4 The New York Times                56           24                  19
 5 The Guardian                      53           28                  18
 6 The Wall Street Journal           53           26                  21
 7 Politico                          52           27                  20
 8 The Associated Press              52           28                  20
 9 BBC News                          49           27                  23
10 The Washington Post               47           30                  22
# ℹ 20 more rows
…
