Analyzing S&P Volitility With R, Kalshi and tidyquant
…
Run it in the morning just after the market opens:

Code

library(here)

snapshot <- readRDS(here("monitor/SandP-volitility-april-1/data/snapshot_apr1.rds"))
# run only when the market is live
# snapshot <- get_market_snapshot("KXINX")
snapshot$markets |> select(market_ticker, title, yes_bid, no_bid, implied_prob)

# A tibble: 30 × 5
   market_ticker                 title               yes_bid no_bid implied_prob
   <chr>                         <chr>                 <dbl>  <dbl>        <dbl>
 1 KXINX-26APR01H1600-T6674.9999 Will the S&P 500 b…    0      0.96         0   
 2 KXINX-26APR01H1600-T5975      Will the S&P 500 b…    0      0.99         0   
 3 KXINX-26APR01H1600-B6662      Will the S&P 500 b…    0.01   0.96         0.01
 4 KXINX-26APR01H1600-B6637      Will the S&P 500 b…    0.13   0.85         0.13
 5 KXINX-26APR01H1600-B6612      Will the S&P 500 b…    0.4    0.55         0.4 
 6 KXINX-26APR01H1600-B6587      Will the S&P 500 b…    0.27   0.68         0.27
 7 KXINX-26APR01H1600-B6562      Will the S&P 500 b…    0.11   0.88         0.11
 8 KXINX-26APR01H1600-B6537      Will the S&P 500 b…    0.01   0.95         0.01
 9 KXINX-26APR01H1600-B6512      Will the S&P 500 b…    0.01   0.97         0.01
10 KXINX-26APR01H1600-B6487      Will the S&P 500 b…    0.01   0.97         0.01
# ℹ 20 more rows
…
