Analyzing S&P Volitility With R, Kalshi and tidyquant
…
Code

snapshot <- get_market_snapshot("KXINX")

Fetching series...
Fetching markets...
Fetching events...
Fetching orderbooks...

Code

snapshot$markets |> select(market_ticker, title, yes_bid, no_bid, implied_prob)

# A tibble: 30 × 5
   market_ticker                 title               yes_bid no_bid implied_prob
   <chr>                         <chr>                 <dbl>  <dbl>        <dbl>
 1 KXINX-26APR01H1600-T6674.9999 Will the S&P 500 b…    0      0.96         0   
 2 KXINX-26APR01H1600-T5975      Will the S&P 500 b…    0      0.99         0   
 3 KXINX-26APR01H1600-B6662      Will the S&P 500 b…    0.01   0.96         0.01
 4 KXINX-26APR01H1600-B6637      Will the S&P 500 b…    0.15   0.81         0.15
 5 KXINX-26APR01H1600-B6612      Will the S&P 500 b…    0.5    0.47         0.5 
 6 KXINX-26APR01H1600-B6587      Will the S&P 500 b…    0.22   0.75         0.22
 7 KXINX-26APR01H1600-B6562      Will the S&P 500 b…    0.06   0.92         0.06
 8 KXINX-26APR01H1600-B6537      Will the S&P 500 b…    0.01   0.96         0.01
 9 KXINX-26APR01H1600-B6512      Will the S&P 500 b…    0.01   0.97         0.01
10 KXINX-26APR01H1600-B6487      Will the S&P 500 b…    0      0.97         0   
# ℹ 20 more rows
…
